0
0.0
0.0
0.0
0.0
0.0
0.0
0.0434782608696
0.0
0.0
0.0
0.0
0.0
0.0196078431373
0.0
0.0
0.0
0.0142857142857
0.0
0.0
0.0119047619048
0.0112359550562
0.010752688172
0.0102040816327
0.0196078431373
0.018691588785
0.018018018018
0.0260869565217
0.025
0.0241935483871
0.03125
0.0378787878788
0.0367647058824
0.0428571428571
0.0486111111111
0.0544217687075
0.0596026490066
0.0645161290323
0.062893081761
0.0740740740741
0.0914634146341
0.101796407186
0.105882352941
0.122093023256
0.131428571429
0.134831460674
0.14364640884
0.146739130435
0.161290322581
0.169312169312
0.171875
0.173469387755
0.175879396985
0.183168316832
0.191176470588
0.19806763285
0.194312796209
0.196261682243
0.202764976959
0.204545454545
0.216216216216
0.212389380531
0.219298245614
0.220779220779
0.226495726496
0.227848101266
0.229166666667
0.230452674897
0.236734693878
0.237903225806
0.234126984127
0.239215686275
0.24513618677
0.246153846154
0.247148288973
0.248120300752
0.253731343284
0.254612546125
0.251824817518
0.257246376812
0.258064516129
0.258865248227
0.259649122807
0.264808362369
0.269896193772
0.267123287671
0.267796610169
0.268456375839
0.273333333333
0.273927392739
0.275409836066
0.275974025974
0.268370607029
0.277955271565
0.270440251572
0.271028037383
0.280373831776
0.273006134969
0.273556231003
0.271084337349
0.275449101796
0.272997032641
0.277286135693
0.277777777778
0.275362318841
0.279538904899
0.280802292264
0.28125
0.278873239437
0.279329608939
0.280555555556
0.28453038674
0.285714285714
0.286103542234
0.283783783784
0.287634408602
0.288770053476
0.289124668435
0.293650793651
0.29057591623
