0
0
0.0
0.0
0.0
0.0
0.0
0.0
0.0
0.0
0.0
0.0
0.0
0.0
0.0
0.0
0.0
0.0140845070423
0.0131578947368
0.0123456790123
0.0235294117647
0.0222222222222
0.031914893617
0.0408163265306
0.0490196078431
0.0571428571429
0.0642201834862
0.070796460177
0.0862068965517
0.110169491525
0.125
0.157024793388
0.178861788618
0.2
0.203125
0.223076923077
0.242424242424
0.244444444444
0.253623188406
0.262411347518
0.263888888889
0.272108843537
0.28
0.281045751634
0.288461538462
0.303797468354
0.304347826087
0.30303030303
0.303571428571
0.317647058824
0.317919075145
0.323863636364
0.324022346369
0.337016574586
0.32972972973
0.336898395722
0.349206349206
0.348958333333
0.355670103093
0.355329949239
0.366834170854
0.373134328358
0.372549019608
0.378640776699
0.377990430622
0.383886255924
0.389671361502
0.395348837209
0.394495412844
0.4
0.405405405405
0.410714285714
0.405286343612
0.410480349345
0.415584415584
0.420600858369
0.425531914894
0.426160337553
0.430962343096
0.43153526971
0.43621399177
0.440816326531
0.441295546559
0.441767068273
0.446215139442
0.446640316206
0.456692913386
0.45703125
0.461240310078
0.461538461538
0.461832061069
0.462121212121
0.466165413534
0.47191011236
0.472118959108
0.472324723247
0.472527472527
0.478102189781
0.481884057971
0.482014388489
0.482142857143
0.482269503546
0.487632508834
0.487719298246
0.493006993007
0.498257839721
0.498269896194
0.498281786942
0.498293515358
0.498305084746
0.494949494949
0.494983277592
0.495016611296
0.49504950495
0.5
0.5
0.5
0.496774193548
0.501607717042
0.501597444089
