0
0
0.5
0.0
0.0
0.0
0.0
0.0
0.037037037037
0.0
0.0
0.0
0.0
0.0
0.0
0.0
0.0
0.0
0.0263157894737
0.0246913580247
0.0232558139535
0.0333333333333
0.0315789473684
0.040404040404
0.0384615384615
0.0462962962963
0.0535714285714
0.0695652173913
0.0840336134454
0.0983606557377
0.103174603175
0.125
0.137404580153
0.157894736842
0.169117647059
0.179856115108
0.19014084507
0.206896551724
0.224489795918
0.225165562914
0.227272727273
0.235668789809
0.24375
0.251533742331
0.259036144578
0.266272189349
0.267441860465
0.274285714286
0.280898876404
0.281767955801
0.288043478261
0.288770053476
0.294736842105
0.295336787565
0.295918367347
0.301507537688
0.30198019802
0.30243902439
0.302884615385
0.308056872038
0.308411214953
0.308755760369
0.315068493151
0.315315315315
0.315555555556
0.315789473684
0.316017316017
0.321888412017
0.322033898305
0.322175732218
0.327800829876
0.323770491803
0.323886639676
0.324
0.329365079365
0.325490196078
0.325581395349
0.330769230769
0.326996197719
0.332075471698
0.337078651685
0.333333333333
0.333333333333
0.334545454545
0.334532374101
0.330960854093
0.335689045936
0.336842105263
0.341463414634
0.333333333333
0.329931972789
0.334459459459
0.335570469799
0.327814569536
0.332236842105
0.328990228013
0.330097087379
0.326923076923
0.331210191083
0.328075709779
0.329153605016
0.326086956522
0.33024691358
0.327217125382
0.328267477204
0.325301204819
0.326347305389
0.323442136499
0.324483775811
0.325513196481
0.322674418605
0.326589595376
0.324712643678
0.324786324786
0.322946175637
0.323033707865
0.324022346369
0.325
0.322314049587
0.323287671233
