0
0.0
0.0
0.0
0.0
0.0
0.0
0.0
0.0
0.0
0.0277777777778
0.0
0.0
0.0
0.0188679245283
0.0
0.0
0.0151515151515
0.0142857142857
0.0
0.0
0.0120481927711
0.0114942528736
0.0
0.0104166666667
0.01
0.00961538461538
0.0
0.00884955752212
0.00854700854701
0.00826446280992
0.008
0.015503875969
0.015037593985
0.00724637681159
0.00704225352113
0.00684931506849
0.0133333333333
0.012987012987
0.0126582278481
0.0123456790123
0.0120481927711
0.0117647058824
0.0114942528736
0.0168539325843
0.0164835164835
0.0161290322581
0.0157894736842
0.0154639175258
0.0151515151515
0.0199004975124
0.019512195122
0.0191387559809
0.018779342723
0.0184331797235
0.0180995475113
0.0223214285714
0.0219298245614
0.0215517241379
0.021186440678
0.0209205020921
0.0205761316872
0.0202429149798
0.0199203187251
0.0236220472441
0.0232558139535
0.0229007633588
0.022641509434
0.0223048327138
0.021978021978
0.0216606498195
0.025
0.0211267605634
0.0208333333333
0.0240549828179
0.0237288135593
0.0200668896321
0.023178807947
0.0228758169935
0.0193548387097
0.0223642172524
0.0220820189274
0.021875
0.0216049382716
0.0244648318043
0.02416918429
0.0239520958084
0.0236686390533
0.0234604105572
0.0231884057971
0.0229226361032
0.0227272727273
0.0224719101124
0.025069637883
0.0220385674931
0.0245901639344
0.0216216216216
0.0241286863271
0.0265957446809
0.0236842105263
0.0261096605744
0.0232558139535
0.025641025641
0.0253807106599
0.0251889168766
0.0249376558603
0.0247524752475
0.0245098039216
0.0267639902676
0.0265700483092
0.0263157894737
0.0261282660333
0.0283018867925
0.0280373831776
0.0278422273782
0.0299539170507
0.0297482837529
0.0294784580499
0.0292792792793
0.0290178571429
